2016/06/01 * guld pre-founding contributions
    arjansingh:Assets                              100 GULD
    arjansingh:Income:guld                        -100 GULD
    guld:Liabilities                         -100 GULD
    guld:Equity:arjansingh                          100 GULD
