2016/06/01 * guld pre-founding contributions
    frekui:Assets                              100 GULD
    frekui:Income:guld                        -100 GULD
    guld:Liabilities                         -100 GULD
    guld:Equity:frekui                          100 GULD
