2016/06/01 * guld pre-founding contributions
    mellowmelon:Assets                              100 GULD
    mellowmelon:Income:guld                        -100 GULD
    guld:Liabilities                         -100 GULD
    guld:Equity:mellowmelon                          100 GULD
