2016/06/01 * guld pre-founding contributions
    skalman:Assets                              100 GULD
    skalman:Income:guld                        -100 GULD
    guld:Liabilities                         -100 GULD
    guld:Equity:skalman                          100 GULD
