2016/06/01 * guld pre-founding contributions
    madbender:Assets                              100 GULD
    madbender:Income:guld                        -100 GULD
    guld:Liabilities                         -100 GULD
    guld:Equity:madbender                          100 GULD
