2016/06/01 * guld pre-founding contributions
    mvz:Assets                              100 GULD
    mvz:Income:guld                        -100 GULD
    guld:Liabilities                         -100 GULD
    guld:Equity:mvz                          100 GULD
