2016/06/01 * guld pre-founding contributions
    xavi-:Assets                              100 GULD
    xavi-:Income:guld                        -100 GULD
    guld:Liabilities                         -100 GULD
    guld:Equity:xavi-                          100 GULD
