2016/06/01 * guld pre-founding contributions
    kitsonk:Assets                              100 GULD
    kitsonk:Income:guld                        -100 GULD
    guld:Liabilities                         -100 GULD
    guld:Equity:kitsonk                          100 GULD
