2016/06/01 * guld pre-founding contributions
    t1st3:Assets                              100 GULD
    t1st3:Income:guld                        -100 GULD
    guld:Liabilities                         -100 GULD
    guld:Equity:t1st3                          100 GULD
