2016/06/01 * guld pre-founding contributions
    zectbynmo:Assets                              100 GULD
    zectbynmo:Income:guld                        -100 GULD
    guld:Liabilities                         -100 GULD
    guld:Equity:zectbynmo                          100 GULD
