2016/06/01 * guld pre-founding contributions
    kkirsche:Assets                              100 GULD
    kkirsche:Income:guld                        -100 GULD
    guld:Liabilities                         -100 GULD
    guld:Equity:kkirsche                          100 GULD
