2016/06/01 * guld pre-founding contributions
    blowery:Assets                              100 GULD
    blowery:Income:guld                        -100 GULD
    guld:Liabilities                         -100 GULD
    guld:Equity:blowery                          100 GULD
