2016/06/01 * guld pre-founding contributions
    rhansen:Assets                              100 GULD
    rhansen:Income:guld                        -100 GULD
    guld:Liabilities                         -100 GULD
    guld:Equity:rhansen                          100 GULD
