2016/06/01 * guld pre-founding contributions
    brechtpm:Assets                              100 GULD
    brechtpm:Income:guld                        -100 GULD
    guld:Liabilities                         -100 GULD
    guld:Equity:brechtpm                          100 GULD
