2016/06/01 * guld pre-founding contributions
    drewr:Assets                              100 GULD
    drewr:Income:guld                        -100 GULD
    guld:Liabilities                         -100 GULD
    guld:Equity:drewr                          100 GULD
