2016/06/01 * guld pre-founding contributions
    queckezz:Assets                              100 GULD
    queckezz:Income:guld                        -100 GULD
    guld:Liabilities                         -100 GULD
    guld:Equity:queckezz                          100 GULD
